%YAML 1.1
%TAG !u! tag:unity3d.com,2011:
--- !u!74 &7400000
AnimationClip:
  m_ObjectHideFlags: 0
  m_CorrespondingSourceObject: {fileID: 0}
  m_PrefabInstance: {fileID: 0}
  m_PrefabAsset: {fileID: 0}
  m_Name: Slide
  serializedVersion: 6
  m_Legacy: 0
  m_Compressed: 0
  m_UseHighQualityCurve: 1
  m_RotationCurves: []
  m_CompressedRotationCurves: []
  m_EulerCurves: []
  m_PositionCurves: []
  m_ScaleCurves: []
  m_FloatCurves: []
  m_PPtrCurves:
  - curve:
    - time: 0
      value: {fileID: 21300000, guid: dbe6db5fb3180e04184277096e75e2c2, type: 3}
    - time: 0.083333336
      value: {fileID: 21300000, guid: 3660ca5af0ae54c4e8a047baf69cb5d2, type: 3}
    - time: 0.16666667
      value: {fileID: 21300000, guid: 5e659bb59f60dcf41a891329a3366f9c, type: 3}
    - time: 0.25
      value: {fileID: 21300000, guid: a85c10e39a694784c911ce82a7114878, type: 3}
    - time: 0.33333334
      value: {fileID: 21300000, guid: 776247ca0ffc8c34ab36e96e95ae31fa, type: 3}
    - time: 0.41666666
      value: {fileID: 21300000, guid: a702094c7b463194483f9c27395399fa, type: 3}
    - time: 0.5
      value: {fileID: 21300000, guid: d7318ed8ad137954c82437c5ea5a8f41, type: 3}
    - time: 0.5833333
      value: {fileID: 21300000, guid: 7f1aa5f512f4a1a41a75edb71137b115, type: 3}
    - time: 0.6666667
      value: {fileID: 21300000, guid: 8cba53d874f6c484786bd0c32147f856, type: 3}
    - time: 0.75
      value: {fileID: 21300000, guid: 8e246712a6042804aaf21f2e58eb31b2, type: 3}
    attribute: m_Sprite
    path: 
    classID: 212
    script: {fileID: 0}
  m_SampleRate: 12
  m_WrapMode: 0
  m_Bounds:
    m_Center: {x: 0, y: 0, z: 0}
    m_Extent: {x: 0, y: 0, z: 0}
  m_ClipBindingConstant:
    genericBindings:
    - serializedVersion: 2
      path: 0
      attribute: 0
      script: {fileID: 0}
      typeID: 212
      customType: 23
      isPPtrCurve: 1
    pptrCurveMapping:
    - {fileID: 21300000, guid: dbe6db5fb3180e04184277096e75e2c2, type: 3}
    - {fileID: 21300000, guid: 3660ca5af0ae54c4e8a047baf69cb5d2, type: 3}
    - {fileID: 21300000, guid: 5e659bb59f60dcf41a891329a3366f9c, type: 3}
    - {fileID: 21300000, guid: a85c10e39a694784c911ce82a7114878, type: 3}
    - {fileID: 21300000, guid: 776247ca0ffc8c34ab36e96e95ae31fa, type: 3}
    - {fileID: 21300000, guid: a702094c7b463194483f9c27395399fa, type: 3}
    - {fileID: 21300000, guid: d7318ed8ad137954c82437c5ea5a8f41, type: 3}
    - {fileID: 21300000, guid: 7f1aa5f512f4a1a41a75edb71137b115, type: 3}
    - {fileID: 21300000, guid: 8cba53d874f6c484786bd0c32147f856, type: 3}
    - {fileID: 21300000, guid: 8e246712a6042804aaf21f2e58eb31b2, type: 3}
  m_AnimationClipSettings:
    serializedVersion: 2
    m_AdditiveReferencePoseClip: {fileID: 0}
    m_AdditiveReferencePoseTime: 0
    m_StartTime: 0
    m_StopTime: 0.8333333
    m_OrientationOffsetY: 0
    m_Level: 0
    m_CycleOffset: 0
    m_HasAdditiveReferencePose: 0
    m_LoopTime: 0
    m_LoopBlend: 0
    m_LoopBlendOrientation: 0
    m_LoopBlendPositionY: 0
    m_LoopBlendPositionXZ: 0
    m_KeepOriginalOrientation: 0
    m_KeepOriginalPositionY: 1
    m_KeepOriginalPositionXZ: 0
    m_HeightFromFeet: 0
    m_Mirror: 0
  m_EditorCurves: []
  m_EulerEditorCurves: []
  m_HasGenericRootTransform: 0
  m_HasMotionFloatCurves: 0
  m_Events: []
