%YAML 1.1
%TAG !u! tag:unity3d.com,2011:
--- !u!78 &1
TagManager:
  serializedVersion: 2
  tags:
  - Platforms
  - Weapons
  - MovingPlatforms
  - Coin
  - Shuriken
  - Boss
  - CheckPoint1
  - CheckPoint2
  - CheckPoint
  - DeathPoint
  - Heart
  layers:
  - Default
  - TransparentFX
  - Ignore Raycast
  - 
  - Water
  - UI
  - 
  - 
  - Platforms
  - Player
  - Boss
  - Shuriken
  - 
  - 
  - 
  - 
  - 
  - 
  - 
  - 
  - 
  - 
  - 
  - 
  - 
  - 
  - 
  - 
  - 
  - 
  - 
  - 
  m_SortingLayers:
  - name: Default
    uniqueID: 0
    locked: 0
  - name: Platforms
    uniqueID: 907406905
    locked: 0
  - name: Player
    uniqueID: 2794220245
    locked: 0
